tidyverse notes - 2 readr
…
"_" or "-"

col_guess()
"?"

2.3 Example data

I have created some example data in Appendix A that provides a good overview of the different data formats that might be encountered and how to deal with them. Consult the data key to see how columns should be parsed.

Start by seeing how it does by default with guess_parser() using spec_csv() and what the data looks like:

# Data
read_csv("data/readr-example.csv", show_col_types = FALSE)
#> # A tibble: 50 × 13
#>    a     b         c d     e           f g              h i          j     k    
#>    <chr> <chr> <dbl> <lgl> <chr>   <dbl> <chr>      <dbl> <date>     <chr> <chr>
#>  1 p     b      95.2 TRUE  gnarly     48 $42,498.… 1.47e7 1585-05-06 20 J… Feb …
#>  2 x     b      71.1 FALSE none       36 $141,971… 1.58e7 1366-12-10 23 A… Jun …
#>  3 e     d      15.6 FALSE kook       35 $15,852.… 1.55e7 1606-06-05 4 Ju… Sep …
#>  4 o     b      57.6 TRUE  kook       46 $66,555.… 1.46e7 1675-01-14 20 O… Dec …
#>  5 v     d      91.1 TRUE  hello      23 $143,747… 1.35e7 1400-05-12 27 J… Oct …
#>  6 r     d      40.0 TRUE  gnarly     36 $46,013.… 1.34e7 1578-09-14 26 J… Nov …
#>  7 h     <NA>   70.8 TRUE  gnarly     43 $126,686… 1.32e7 1492-08-28 5 No… Aug …
#>  8 p     e      82.0 TRUE  goodbye    43 $85,459.… 1.37e7 1214-10-11 17 F… Feb …
#>  9 u     <NA>   96.9 FALSE hello      37 $143,002… 1.56e7 1310-10-12 27 O… Nov …
#> 10 i     d      12.1 FALSE hello      48 $162,345… 1.61e7 1299-01-20 25 S… Aug …
#> # ℹ 40 more rows
#> # ℹ 2 more variables: l <dbl>, m <dttm>
…
The parser generally does well. Columns a, b, c, and d are all completely correct, including identifying NA values in column b, but there are some issues to deal with in columns e, f, and g.

2.3.1 Overriding guesses

To override the guesses from guess_parser() we can use col_* functions to be more specific, turning character() into factor() (Section 2.4.4) and double() to integer() (Section 2.4.1). Use col_number() to properly read in values such as $42,498.74 as numeric (Section 2.4.2). Can also add “none” to the na argument to turn “none” into NA in column e. Use of col_only() only reads in the specified columns.

read_csv("data/readr-example.csv", 
         na = c("", "NA", "none"), # Add none as NA in b
         col_types = cols_only(
  e = col_factor(c("hello", "goodbye", "kook", "gnarly")),
  f = col_integer(),
  g = col_number()
))
#> # A tibble: 50 × 3
#>    e           f       g
#>    <fct>   <int>   <dbl>
#>  1 gnarly     48  42499.
#>  2 <NA>       36 141972.
#>  3 kook       35  15853.
#>  4 kook       46  66555.
#>  5 hello      23 143748.
#>  6 gnarly     36  46013.
#>  7 gnarly     43 126687.
#>  8 goodbye    43  85460.
#>  9 hello      37 143003.
#> 10 hello      48 162346.
#> # ℹ 40 more rows

2.3.2 Dealing with dates

Dealing with dates often requires the use of a date format in col_date(), col_time(), and col_datetime() functions. Columns i and m are correctly specified as date and datetime because they follow the formats in locale(). See Section 2.4.3 for details.

read_csv("data/readr-example.csv", col_types = cols_only(
  h = col_date("%Y%m%d"), # date as 8 digit number (20230316)
  i = col_date(), # date in locale (2023-03-16)
  j = col_date("%d %B %Y"), # 16 March 2023
  k = col_date("%b %d %Y"), # Mar 16 2023
  l = col_time("%h"), # time
  m = col_datetime() # datetime in locale (2023-03-16 11:49)
))
#> # A tibble: 50 × 6
#>    h          i          j          k          l         m                  
#>    <date>     <date>     <date>     <date>     <time>    <dttm>             
#>  1 1465-12-20 1585-05-06 1503-01-20 1313-02-04 150248:00 2023-05-16 02:57:00
#>  2 1582-09-13 1366-12-10 1390-04-23 1553-06-17 197379:00 2023-04-28 23:26:00
#>  3 1546-08-15 1606-06-05 1585-07-04 1299-09-18 101224:00 2023-09-22 13:17:00
#>  4 1463-11-27 1675-01-14 1237-10-20 1558-12-01 225648:00 2023-02-27 07:48:00
#>  5 1352-03-26 1400-05-12 1394-07-27 1297-10-21 300957:00 2023-02-11 17:22:00
#>  6 1335-05-25 1578-09-14 1593-07-26 1621-11-23  43411:00 2023-06-02 06:30:00
#>  7 1315-03-20 1492-08-28 1237-11-05 1681-08-09 317706:00 2023-07-26 12:09:00
#>  8 1370-01-09 1214-10-11 1650-02-17 1301-02-28 224552:00 2023-06-26 01:25:00
#>  9 1562-05-23 1310-10-12 1660-10-27 1524-11-08  48277:00 2023-12-25 14:20:00
#> 10 1608-06-21 1299-01-20 1263-09-25 1290-08-23 239288:00 2023-04-14 04:22:00
#> # ℹ 40 more rows
…
