tidyverse notes - 11 tidyr: Rectandling
…
First need to use unnest_longer() because the first level of the list is a list of observations.

repos <- repos |> unnest_longer(repo)
repos
#> # A tibble: 176 × 1
#>    repo             
#>    <list>           
#>  1 <named list [68]>
#>  2 <named list [68]>
#>  3 <named list [68]>
#>  4 <named list [68]>
#>  5 <named list [68]>
#>  6 <named list [68]>
#>  7 <named list [68]>
#>  8 <named list [68]>
#>  9 <named list [68]>
#> 10 <named list [68]>
#> # ℹ 166 more rows

Then we can use unnest_wider() or hoist(). This uses login = c("owner", "login") to reach two levels deep inside of a list.

repos |> hoist(repo, 
  login = c("owner", "login"), 
  name = "name",
  homepage = "homepage",
  watchers = "watchers_count"
)
#> # A tibble: 176 × 5
#>    login       name        homepage watchers repo             
#>    <chr>       <chr>       <chr>       <int> <list>           
#>  1 gaborcsardi after       <NA>            5 <named list [65]>
#>  2 gaborcsardi argufy      <NA>           19 <named list [65]>
#>  3 gaborcsardi ask         <NA>            5 <named list [65]>
#>  4 gaborcsardi baseimports <NA>            0 <named list [65]>
#>  5 gaborcsardi citest      <NA>            0 <named list [65]>
#>  6 gaborcsardi clisymbols  ""             18 <named list [65]>
#>  7 gaborcsardi cmaker      <NA>            0 <named list [65]>
#>  8 gaborcsardi cmark       <NA>            0 <named list [65]>
#>  9 gaborcsardi conditions  <NA>            0 <named list [65]>
#> 10 gaborcsardi crayon      <NA>           52 <named list [65]>
#> # ℹ 166 more rows

11.3 Game of Thrones characters

Data: got_chars

got_chars has a similar structure to gh_users: it is a list of named lists, where each element of the inner list describes some attribute of a GoT character.

chars <- tibble(char = got_chars)
chars
#> # A tibble: 30 × 1
#>    char             
#>    <list>           
#>  1 <named list [18]>
#>  2 <named list [18]>
#>  3 <named list [18]>
#>  4 <named list [18]>
#>  5 <named list [18]>
#>  6 <named list [18]>
#>  7 <named list [18]>
#>  8 <named list [18]>
#>  9 <named list [18]>
#> 10 <named list [18]>
#> # ℹ 20 more rows

chars <- chars |> unnest_wider(char)
chars
#> # A tibble: 30 × 18
#>    url           id name  gender culture born  died  alive titles aliases father
#>    <chr>      <int> <chr> <chr>  <chr>   <chr> <chr> <lgl> <list> <list>  <chr> 
#>  1 https://w…  1022 Theo… Male   "Ironb… "In … ""    TRUE  <chr>  <chr>   ""    
#>  2 https://w…  1052 Tyri… Male   ""      "In … ""    TRUE  <chr>  <chr>   ""    
#>  3 https://w…  1074 Vict… Male   "Ironb… "In … ""    TRUE  <chr>  <chr>   ""    
#>  4 https://w…  1109 Will  Male   ""      ""    "In … FALSE <chr>  <chr>   ""    
#>  5 https://w…  1166 Areo… Male   "Norvo… "In … ""    TRUE  <chr>  <chr>   ""    
#>  6 https://w…  1267 Chett Male   ""      "At … "In … FALSE <chr>  <chr>   ""    
#>  7 https://w…  1295 Cres… Male   ""      "In … "In … FALSE <chr>  <chr>   ""    
#>  8 https://w…   130 Aria… Female "Dorni… "In … ""    TRUE  <chr>  <chr>   ""    
#>  9 https://w…  1303 Daen… Female "Valyr… "In … ""    TRUE  <chr>  <chr>   ""    
#> 10 https://w…  1319 Davo… Male   "Weste… "In … ""    TRUE  <chr>  <chr>   ""    
#> # ℹ 20 more rows
#> # ℹ 7 more variables: mother <chr>, spouse <chr>, allegiances <list>,
#> #   books <list>, povBooks <list>, tvSeries <list>, playedBy <list>

The difference with gh_users is that many of the resulting columns are themselves list columns. What you do next is an issue of what you want to do in your analysis.

Maybe you want a row for every book and TV series that the character appears in:

chars |> 
  select(name, books, tvSeries) |> 
  pivot_longer(c(books, tvSeries),
               names_to = "media",
               values_to = "value") |> 
  unnest_longer(value)
#> # A tibble: 179 × 3
#>    name             media    value            
#>    <chr>            <chr>    <chr>            
#>  1 Theon Greyjoy    books    A Game of Thrones
#>  2 Theon Greyjoy    books    A Storm of Swords
#>  3 Theon Greyjoy    books    A Feast for Crows
#>  4 Theon Greyjoy    tvSeries Season 1         
#>  5 Theon Greyjoy    tvSeries Season 2         
#>  6 Theon Greyjoy    tvSeries Season 3         
#>  7 Theon Greyjoy    tvSeries Season 4         
#>  8 Theon Greyjoy    tvSeries Season 5         
#>  9 Theon Greyjoy    tvSeries Season 6         
#> 10 Tyrion Lannister books    A Feast for Crows
#> # ℹ 169 more rows

Maybe you want to build a table that lets you match title to name:

chars |> 
  select(name, title = titles) |> 
  unnest_longer(title)
#> # A tibble: 59 × 2
#>    name              title                                                 
#>    <chr>             <chr>                                                 
#>  1 Theon Greyjoy     "Prince of Winterfell"                                
#>  2 Theon Greyjoy     "Lord of the Iron Islands (by law of the green lands)"
#>  3 Tyrion Lannister  "Acting Hand of the King (former)"                    
#>  4 Tyrion Lannister  "Master of Coin (former)"                             
#>  5 Victarion Greyjoy "Lord Captain of the Iron Fleet"                      
#>  6 Victarion Greyjoy "Master of the Iron Victory"                          
#>  7 Will              ""                                                    
#>  8 Areo Hotah        "Captain of the Guard at Sunspear"                    
#>  9 Chett             ""                                                    
#> 10 Cressen           "Maester"                                             
#> # ℹ 49 more rows
…
11.5 Sharla Gelfand’s discography

Data: discog

discs <- tibble(disc = discog) |> 
  unnest_wider(disc) |> 
  mutate(date_added = as.POSIXct(strptime(date_added, "%Y-%m-%dT%H:%M:%S"))) 
discs
#> # A tibble: 155 × 5
#>    instance_id date_added          basic_information       id rating
#>          <int> <dttm>              <list>               <int>  <int>
#>  1   354823933 2019-02-16 17:48:59 <named list [11]>  7496378      0
#>  2   354092601 2019-02-13 14:13:11 <named list [11]>  4490852      0
#>  3   354091476 2019-02-13 14:07:23 <named list [11]>  9827276      0
#>  4   351244906 2019-02-02 11:39:58 <named list [11]>  9769203      0
#>  5   351244801 2019-02-02 11:39:37 <named list [11]>  7237138      0
#>  6   351052065 2019-02-01 20:40:53 <named list [11]> 13117042      0
#>  7   350315345 2019-01-29 15:48:37 <named list [11]>  7113575      0
#>  8   350315103 2019-01-29 15:47:22 <named list [11]> 10540713      0
#>  9   350314507 2019-01-29 15:44:08 <named list [11]> 11260950      0
#> 10   350314047 2019-01-29 15:41:35 <named list [11]> 11726853      0
#> # ℹ 145 more rows

Need to drop id column because this information is repeated in the basic_information list. Can either get rid of id or use hoist().

discs |> 
  select(!id) |> 
  unnest_wider(basic_information)
#> # A tibble: 155 × 14
#>    instance_id date_added          labels  year master_url  artists     id thumb
#>          <int> <dttm>              <list> <int> <chr>       <list>   <int> <chr>
#>  1   354823933 2019-02-16 17:48:59 <list>  2015 <NA>        <list>  7.50e6 "htt…
#>  2   354092601 2019-02-13 14:13:11 <list>  2013 https://ap… <list>  4.49e6 "htt…
#>  3   354091476 2019-02-13 14:07:23 <list>  2017 https://ap… <list>  9.83e6 "htt…
#>  4   351244906 2019-02-02 11:39:58 <list>  2017 https://ap… <list>  9.77e6 "htt…
#>  5   351244801 2019-02-02 11:39:37 <list>  2015 https://ap… <list>  7.24e6 "htt…
#>  6   351052065 2019-02-01 20:40:53 <list>  2019 https://ap… <list>  1.31e7 "htt…
#>  7   350315345 2019-01-29 15:48:37 <list>  2014 https://ap… <list>  7.11e6 "htt…
#>  8   350315103 2019-01-29 15:47:22 <list>  2015 https://ap… <list>  1.05e7 "htt…
#>  9   350314507 2019-01-29 15:44:08 <list>  2017 https://ap… <list>  1.13e7 ""   
#> 10   350314047 2019-01-29 15:41:35 <list>  2017 <NA>        <list>  1.17e7 "htt…
#> # ℹ 145 more rows
#> # ℹ 6 more variables: title <chr>, formats <list>, cover_image <chr>,
#> #   resource_url <chr>, master_id <int>, rating <int>

# Or hoist
discs |> 
  hoist(basic_information,
    title = "title",
    year = "year",
    label = list("labels", 1, "name"),
    artist = list("artists", 1, "name")
  )
#> # A tibble: 155 × 9
#>    instance_id date_added          title     year label artist basic_information
#>          <int> <dttm>              <chr>    <int> <chr> <chr>  <list>           
#>  1   354823933 2019-02-16 17:48:59 Demo      2015 Tobi… Mollot <named list [9]> 
#>  2   354092601 2019-02-13 14:13:11 Observa…  2013 La V… Una B… <named list [9]> 
#>  3   354091476 2019-02-13 14:07:23 I         2017 La V… S.H.I… <named list [9]> 
#>  4   351244906 2019-02-02 11:39:58 Oído Ab…  2017 La V… Rata … <named list [9]> 
#>  5   351244801 2019-02-02 11:39:37 A Cat's…  2015 Kato… Ivy (… <named list [9]> 
#>  6   351052065 2019-02-01 20:40:53 Tashme    2019 High… Tashme <named list [9]> 
#>  7   350315345 2019-01-29 15:48:37 Demo      2014 Mind… Desgr… <named list [9]> 
#>  8   350315103 2019-01-29 15:47:22 Let The…  2015 Not … Phant… <named list [9]> 
#>  9   350314507 2019-01-29 15:44:08 Sub Spa…  2017 Not … Sub S… <named list [9]> 
#> 10   350314047 2019-01-29 15:41:35 Demo      2017 Pres… Small… <named list [9]> 
#> # ℹ 145 more rows
#> # ℹ 2 more variables: id <int>, rating <int>
