tidyverse notes - 10 tidyr: Pivoting
…
# Pivot all columns except religion
relig_income |> 
  pivot_longer(
    cols = !religion, 
    names_to = "income", 
    values_to = "count"
  )
#> # A tibble: 180 × 3
#>    religion income             count
#>    <chr>    <chr>              <dbl>
#>  1 Agnostic <$10k                 27
#>  2 Agnostic $10-20k               34
#>  3 Agnostic $20-30k               60
#>  4 Agnostic $30-40k               81
#>  5 Agnostic $40-50k               76
#>  6 Agnostic $50-75k              137
#>  7 Agnostic $75-100k             122
#>  8 Agnostic $100-150k            109
#>  9 Agnostic >150k                 84
#> 10 Agnostic Don't know/refused    96
#> # ℹ 170 more rows

10.1.2 Numeric data in column names

Data: billboard

Use of arguments names_prefix to strip away prefix in column names of wk and names_transform to convert character to integer.

billboard
#> # A tibble: 317 × 79
#>    artist     track date.entered   wk1   wk2   wk3   wk4   wk5   wk6   wk7   wk8
#>    <chr>      <chr> <date>       <dbl> <dbl> <dbl> <dbl> <dbl> <dbl> <dbl> <dbl>
#>  1 2 Pac      Baby… 2000-02-26      87    82    72    77    87    94    99    NA
#>  2 2Ge+her    The … 2000-09-02      91    87    92    NA    NA    NA    NA    NA
#>  3 3 Doors D… Kryp… 2000-04-08      81    70    68    67    66    57    54    53
#>  4 3 Doors D… Loser 2000-10-21      76    76    72    69    67    65    55    59
#>  5 504 Boyz   Wobb… 2000-04-15      57    34    25    17    17    31    36    49
#>  6 98^0       Give… 2000-08-19      51    39    34    26    26    19     2     2
#>  7 A*Teens    Danc… 2000-07-08      97    97    96    95   100    NA    NA    NA
#>  8 Aaliyah    I Do… 2000-01-29      84    62    51    41    38    35    35    38
#>  9 Aaliyah    Try … 2000-03-18      59    53    38    28    21    18    16    14
#> 10 Adams, Yo… Open… 2000-08-26      76    76    74    69    68    67    61    58
#> # ℹ 307 more rows
#> # ℹ 68 more variables: wk9 <dbl>, wk10 <dbl>, wk11 <dbl>, wk12 <dbl>,
#> #   wk13 <dbl>, wk14 <dbl>, wk15 <dbl>, wk16 <dbl>, wk17 <dbl>, wk18 <dbl>,
#> #   wk19 <dbl>, wk20 <dbl>, wk21 <dbl>, wk22 <dbl>, wk23 <dbl>, wk24 <dbl>,
#> #   wk25 <dbl>, wk26 <dbl>, wk27 <dbl>, wk28 <dbl>, wk29 <dbl>, wk30 <dbl>,
#> #   wk31 <dbl>, wk32 <dbl>, wk33 <dbl>, wk34 <dbl>, wk35 <dbl>, wk36 <dbl>,
#> #   wk37 <dbl>, wk38 <dbl>, wk39 <dbl>, wk40 <dbl>, wk41 <dbl>, wk42 <dbl>, …

billboard |>
  pivot_longer(
    cols = starts_with("wk"), 
    names_to = "week", 
    names_prefix = "wk",
    names_transform = as.integer,
    values_to = "rank",
    values_drop_na = TRUE,
  )
#> # A tibble: 5,307 × 5
#>    artist  track                   date.entered  week  rank
#>    <chr>   <chr>                   <date>       <int> <dbl>
#>  1 2 Pac   Baby Don't Cry (Keep... 2000-02-26       1    87
#>  2 2 Pac   Baby Don't Cry (Keep... 2000-02-26       2    82
#>  3 2 Pac   Baby Don't Cry (Keep... 2000-02-26       3    72
#>  4 2 Pac   Baby Don't Cry (Keep... 2000-02-26       4    77
#>  5 2 Pac   Baby Don't Cry (Keep... 2000-02-26       5    87
#>  6 2 Pac   Baby Don't Cry (Keep... 2000-02-26       6    94
#>  7 2 Pac   Baby Don't Cry (Keep... 2000-02-26       7    99
#>  8 2Ge+her The Hardest Part Of ... 2000-09-02       1    91
#>  9 2Ge+her The Hardest Part Of ... 2000-09-02       2    87
#> 10 2Ge+her The Hardest Part Of ... 2000-09-02       3    92
#> # ℹ 5,297 more rows
…
m/f gives the gender.

014/1524/2535/3544/4554/65 supplies the age range.

To deal with this:

Specifying multiple column names in names_to.

Separate column values with either names_sep or names_pattern.

Use of readr functions to convert the gender and age to factors. This is faster than using mutate() afterwards.

who
#> # A tibble: 7,240 × 60
#>    country  iso2  iso3   year new_sp_m014 new_sp_m1524 new_sp_m2534 new_sp_m3544
#>    <chr>    <chr> <chr> <dbl>       <dbl>        <dbl>        <dbl>        <dbl>
#>  1 Afghani… AF    AFG    1980          NA           NA           NA           NA
#>  2 Afghani… AF    AFG    1981          NA           NA           NA           NA
#>  3 Afghani… AF    AFG    1982          NA           NA           NA           NA
#>  4 Afghani… AF    AFG    1983          NA           NA           NA           NA
#>  5 Afghani… AF    AFG    1984          NA           NA           NA           NA
#>  6 Afghani… AF    AFG    1985          NA           NA           NA           NA
#>  7 Afghani… AF    AFG    1986          NA           NA           NA           NA
#>  8 Afghani… AF    AFG    1987          NA           NA           NA           NA
#>  9 Afghani… AF    AFG    1988          NA           NA           NA           NA
#> 10 Afghani… AF    AFG    1989          NA           NA           NA           NA
#> # ℹ 7,230 more rows
#> # ℹ 52 more variables: new_sp_m4554 <dbl>, new_sp_m5564 <dbl>,
#> #   new_sp_m65 <dbl>, new_sp_f014 <dbl>, new_sp_f1524 <dbl>,
#> #   new_sp_f2534 <dbl>, new_sp_f3544 <dbl>, new_sp_f4554 <dbl>,
#> #   new_sp_f5564 <dbl>, new_sp_f65 <dbl>, new_sn_m014 <dbl>,
#> #   new_sn_m1524 <dbl>, new_sn_m2534 <dbl>, new_sn_m3544 <dbl>,
#> #   new_sn_m4554 <dbl>, new_sn_m5564 <dbl>, new_sn_m65 <dbl>, …
…
  pivot_longer(
    cols = new_sp_m014:newrel_f65,
    names_to = c("diagnosis", "gender", "age"), 
    names_pattern = "new_?(.*)_(.)(.*)",
    names_transform = list(
      gender = ~ readr::parse_factor(.x, levels = c("f", "m")),
      age = ~ readr::parse_factor(
        .x,
        levels = c("014", "1524", "2534", "3544", "4554", "5564", "65"), 
        ordered = TRUE
      )
    ),
    values_to = "count",
)
#> # A tibble: 405,440 × 8
#>    country     iso2  iso3   year diagnosis gender age   count
#>    <chr>       <chr> <chr> <dbl> <chr>     <fct>  <ord> <dbl>
#>  1 Afghanistan AF    AFG    1980 sp        m      014      NA
#>  2 Afghanistan AF    AFG    1980 sp        m      1524     NA
#>  3 Afghanistan AF    AFG    1980 sp        m      2534     NA
#>  4 Afghanistan AF    AFG    1980 sp        m      3544     NA
#>  5 Afghanistan AF    AFG    1980 sp        m      4554     NA
#>  6 Afghanistan AF    AFG    1980 sp        m      5564     NA
#>  7 Afghanistan AF    AFG    1980 sp        m      65       NA
#>  8 Afghanistan AF    AFG    1980 sp        f      014      NA
#>  9 Afghanistan AF    AFG    1980 sp        f      1524     NA
#> 10 Afghanistan AF    AFG    1980 sp        f      2534     NA
#> # ℹ 405,430 more rows
…
anscombe |>
  pivot_longer(
    cols = everything(), 
    cols_vary = "slowest",
    names_to = c(".value", "set"), 
    names_pattern = "(.)(.)"
  )
#> # A tibble: 44 × 3
#>    set       x     y
#>    <chr> <dbl> <dbl>
#>  1 1        10  8.04
#>  2 1         8  6.95
#>  3 1        13  7.58
#>  4 1         9  8.81
#>  5 1        11  8.33
#>  6 1        14  9.96
#>  7 1         6  7.24
#>  8 1         4  4.26
#>  9 1        12 10.8 
#> 10 1         7  4.82
#> # ℹ 34 more rows
…
names_expand: Whether to make implicit factor levels explicit.

id_cols: A set of columns that uniquely identify each observation.

id_expand: Whether to make implicit factor levels explicit in id_cols.

unused_fn: A function applied to summarize the values from the unused columns (i.e. columns not identified by id_cols, names_from, or values_from).

10.2.1 Capture-recapture data

Data: fish_encounters

fish_encounters
#> # A tibble: 114 × 3
#>    fish  station  seen
#>    <fct> <fct>   <int>
#>  1 4842  Release     1
#>  2 4842  I80_1       1
#>  3 4842  Lisbon      1
#>  4 4842  Rstr        1
#>  5 4842  Base_TD     1
#>  6 4842  BCE         1
#>  7 4842  BCW         1
#>  8 4842  BCE2        1
#>  9 4842  BCW2        1
#> 10 4842  MAE         1
#> # ℹ 104 more rows
…
10.2.2 Aggregation

Data: warpbreaks

Use of values_fn to create aggregate when pivot_wider() matches multiple cells.

warpbreaks <- warpbreaks |>
  as_tibble() |>
  select(wool, tension, breaks)
warpbreaks
#> # A tibble: 54 × 3
#>    wool  tension breaks
#>    <fct> <fct>    <dbl>
#>  1 A     L           26
#>  2 A     L           30
#>  3 A     L           54
#>  4 A     L           25
#>  5 A     L           70
#>  6 A     L           52
#>  7 A     L           51
#>  8 A     L           26
#>  9 A     L           67
#> 10 A     M           18
#> # ℹ 44 more rows
…
Take tidy data and widen to have one column for each combination of two columns. Do this by specifying multiple variables for names_from.

Control how the column names are constructed with names_sep and names_prefix, or the workhorse names_glue

# Create tidy data
production <- 
  expand_grid(
    product = c("A", "B"), 
    country = c("AI", "EI"), 
    year = 2000:2014
  ) %>%
  filter((product == "A" & country == "AI") | product == "B") %>% 
  mutate(production = rnorm(nrow(.)))
production
#> # A tibble: 45 × 4
#>    product country  year production
#>    <chr>   <chr>   <int>      <dbl>
#>  1 A       AI       2000      0.961
#>  2 A       AI       2001      0.608
#>  3 A       AI       2002      0.991
#>  4 A       AI       2003      0.309
#>  5 A       AI       2004     -0.197
#>  6 A       AI       2005      0.526
#>  7 A       AI       2006     -1.33 
#>  8 A       AI       2007     -0.838
#>  9 A       AI       2008     -1.66 
#> 10 A       AI       2009      1.11 
#> # ℹ 35 more rows
…
10.2.4 Tidy census

Data: us_rent_income

us_rent_income
#> # A tibble: 104 × 5
#>    GEOID NAME       variable estimate   moe
#>    <chr> <chr>      <chr>       <dbl> <dbl>
#>  1 01    Alabama    income      24476   136
#>  2 01    Alabama    rent          747     3
#>  3 02    Alaska     income      32940   508
#>  4 02    Alaska     rent         1200    13
#>  5 04    Arizona    income      27517   148
#>  6 04    Arizona    rent          972     4
#>  7 05    Arkansas   income      23789   165
#>  8 05    Arkansas   rent          709     5
#>  9 06    California income      29454   109
#> 10 06    California rent         1358     3
#> # ℹ 94 more rows

us_rent_income |> 
  pivot_wider(
    names_from = variable, 
    values_from = c(estimate, moe)
  )
#> # A tibble: 52 × 6
#>    GEOID NAME                 estimate_income estimate_rent moe_income moe_rent
#>    <chr> <chr>                          <dbl>         <dbl>      <dbl>    <dbl>
#>  1 01    Alabama                        24476           747        136        3
#>  2 02    Alaska                         32940          1200        508       13
#>  3 04    Arizona                        27517           972        148        4
#>  4 05    Arkansas                       23789           709        165        5
#>  5 06    California                     29454          1358        109        3
#>  6 08    Colorado                       32401          1125        109        5
#>  7 09    Connecticut                    35326          1123        195        5
#>  8 10    Delaware                       31560          1076        247       10
#>  9 11    District of Columbia           43198          1424        681       17
#> 10 12    Florida                        25952          1077         70        3
#> # ℹ 42 more rows
…
Data: world_bank_pop

Problems:

Year variables are column names: pivot_longer().

indicator column contains multiple variables.

This creates variable column with two variables that should be widened: pivot_wider()

Make new column names lowercase: dplyr::rename_with()

world_bank_pop
#> # A tibble: 1,064 × 20
#>    country indicator      `2000`  `2001`  `2002`  `2003`  `2004`  `2005`  `2006`
#>    <chr>   <chr>           <dbl>   <dbl>   <dbl>   <dbl>   <dbl>   <dbl>   <dbl>
#>  1 ABW     SP.URB.TOTL    4.16e4 4.20e+4 4.22e+4 4.23e+4 4.23e+4 4.24e+4 4.26e+4
#>  2 ABW     SP.URB.GROW    1.66e0 9.56e-1 4.01e-1 1.97e-1 9.46e-2 1.94e-1 3.67e-1
#>  3 ABW     SP.POP.TOTL    8.91e4 9.07e+4 9.18e+4 9.27e+4 9.35e+4 9.45e+4 9.56e+4
#>  4 ABW     SP.POP.GROW    2.54e0 1.77e+0 1.19e+0 9.97e-1 9.01e-1 1.00e+0 1.18e+0
#>  5 AFE     SP.URB.TOTL    1.16e8 1.20e+8 1.24e+8 1.29e+8 1.34e+8 1.39e+8 1.44e+8
#>  6 AFE     SP.URB.GROW    3.60e0 3.66e+0 3.72e+0 3.71e+0 3.74e+0 3.81e+0 3.81e+0
#>  7 AFE     SP.POP.TOTL    4.02e8 4.12e+8 4.23e+8 4.34e+8 4.45e+8 4.57e+8 4.70e+8
#>  8 AFE     SP.POP.GROW    2.58e0 2.59e+0 2.61e+0 2.62e+0 2.64e+0 2.67e+0 2.70e+0
#>  9 AFG     SP.URB.TOTL    4.31e6 4.36e+6 4.67e+6 5.06e+6 5.30e+6 5.54e+6 5.83e+6
#> 10 AFG     SP.URB.GROW    1.86e0 1.15e+0 6.86e+0 7.95e+0 4.59e+0 4.47e+0 5.03e+0
#> # ℹ 1,054 more rows
#> # ℹ 11 more variables: `2007` <dbl>, `2008` <dbl>, `2009` <dbl>, `2010` <dbl>,
#> #   `2011` <dbl>, `2012` <dbl>, `2013` <dbl>, `2014` <dbl>, `2015` <dbl>,
#> #   `2016` <dbl>, `2017` <dbl>
…
  pivot_longer(
    cols = `2000`:`2017`, 
    names_to = "year", 
    values_to = "value"
  ) |> 
# 2. separate indicator column
  separate(indicator, c(NA, "area", "variable")) |> 
# 3. pivot variable column wider
  pivot_wider(
    names_from = variable, 
    values_from = value,
  ) |> 
# 4. Make new column names lowercase
  rename_with(tolower)
#> # A tibble: 9,576 × 5
#>    country area  year   totl   grow
#>    <chr>   <chr> <chr> <dbl>  <dbl>
#>  1 ABW     URB   2000  41625 1.66  
#>  2 ABW     URB   2001  42025 0.956 
#>  3 ABW     URB   2002  42194 0.401 
#>  4 ABW     URB   2003  42277 0.197 
#>  5 ABW     URB   2004  42317 0.0946
#>  6 ABW     URB   2005  42399 0.194 
#>  7 ABW     URB   2006  42555 0.367 
#>  8 ABW     URB   2007  42729 0.408 
#>  9 ABW     URB   2008  42906 0.413 
#> 10 ABW     URB   2009  43079 0.402 
#> # ℹ 9,566 more rows
…
# Pivot with spec
pivot_longer_spec(relig_income, spec)
#> # A tibble: 180 × 3
#>    religion income             count
#>    <chr>    <chr>              <dbl>
#>  1 Agnostic <$10k                 27
#>  2 Agnostic $10-20k               34
#>  3 Agnostic $20-30k               60
#>  4 Agnostic $30-40k               81
#>  5 Agnostic $40-50k               76
#>  6 Agnostic $50-75k              137
#>  7 Agnostic $75-100k             122
#>  8 Agnostic $100-150k            109
#>  9 Agnostic >150k                 84
#> 10 Agnostic Don't know/refused    96
#> # ℹ 170 more rows
…
# Pivot with spec
us_rent_income |> 
  pivot_wider_spec(spec2)
#> # A tibble: 52 × 6
#>    GEOID NAME                 income  rent income_moe rent_moe
#>    <chr> <chr>                 <dbl> <dbl>      <dbl>    <dbl>
#>  1 01    Alabama               24476   747        136        3
#>  2 02    Alaska                32940  1200        508       13
#>  3 04    Arizona               27517   972        148        4
#>  4 05    Arkansas              23789   709        165        5
#>  5 06    California            29454  1358        109        3
#>  6 08    Colorado              32401  1125        109        5
#>  7 09    Connecticut           35326  1123        195        5
#>  8 10    Delaware              31560  1076        247       10
#>  9 11    District of Columbia  43198  1424        681       17
#> 10 12    Florida               25952  1077         70        3
#> # ℹ 42 more rows
…
The column names in the data are two different kinds of variables: units and region. This can be described by creating a spec by hand.

spec <- tribble(
  ~.name,            ~.value, ~units,  ~region,     
  "1 unit",          "n",     "1",     NA,          
  "2 to 4 units",    "n",     "2-4",   NA,          
  "5 units or more", "n",     "5+",    NA,          
  "Northeast",       "n",     NA,      "Northeast", 
  "Midwest",         "n",     NA,      "Midwest",   
  "South",           "n",     NA,      "South",     
  "West",            "n",     NA,      "West",      
)

construction |> pivot_longer_spec(spec)
#> # A tibble: 63 × 5
#>     Year Month    units region        n
#>    <dbl> <chr>    <chr> <chr>     <dbl>
#>  1  2018 January  1     <NA>        859
#>  2  2018 January  2-4   <NA>         NA
#>  3  2018 January  5+    <NA>        348
#>  4  2018 January  <NA>  Northeast   114
#>  5  2018 January  <NA>  Midwest     169
#>  6  2018 January  <NA>  South       596
#>  7  2018 January  <NA>  West        339
#>  8  2018 February 1     <NA>        882
#>  9  2018 February 2-4   <NA>         NA
#> 10  2018 February 5+    <NA>        400
#> # ℹ 53 more rows
…
