tidyverse notes - 18 Color scales
…
Discrete

There are many, many more discrete palettes available. A good way to see the palettes available is to filter palettes_d_names by the name of the package.

palettes_d_names |> 
  filter(package == "nationalparkcolors")
#> # A tibble: 25 × 5
#>    package            palette        length type        novelty
#>    <chr>              <chr>           <int> <chr>       <lgl>  
#>  1 nationalparkcolors SmokyMountains      6 qualitative TRUE   
#>  2 nationalparkcolors RockyMountains      5 qualitative TRUE   
#>  3 nationalparkcolors Yellowstone         6 qualitative TRUE   
#>  4 nationalparkcolors Arches              6 qualitative TRUE   
#>  5 nationalparkcolors ArcticGates         6 qualitative TRUE   
#>  6 nationalparkcolors MtMckinley          6 qualitative TRUE   
#>  7 nationalparkcolors GeneralGrant        8 qualitative TRUE   
#>  8 nationalparkcolors Hawaii              5 qualitative TRUE   
#>  9 nationalparkcolors CraterLake          7 qualitative TRUE   
#> 10 nationalparkcolors Saguaro             6 qualitative TRUE   
#> # ℹ 15 more rows
…
