26 Programming with dplyr – tidyverse notes
…
26.3.3 Any number of user-supplied expressions

Use ... to take any number of user-specified expressions. When using ... all named arguments should begin with . to minimize chances for argument clashes. See the tidyverse design guide for details.

my_summarise <- function(.data, ...) {
  .data %>%
    group_by(...) %>%
    summarise(mass = mean(mass, na.rm = TRUE),
              height = mean(height, na.rm = TRUE))
}
starwars %>% my_summarise(homeworld, gender)
#> `summarise()` has grouped output by 'homeworld'. You can override using the
#> `.groups` argument.
#> # A tibble: 57 × 4
#> # Groups:   homeworld [49]
#>    homeworld      gender     mass height
#>    <chr>          <chr>     <dbl>  <dbl>
#>  1 Alderaan       feminine     49   150 
#>  2 Alderaan       masculine    79   190.
#>  3 Aleen Minor    masculine    15    79 
#>  4 Bespin         masculine    79   175 
#>  5 Bestine IV     <NA>        110   180 
#>  6 Cato Neimoidia masculine    90   191 
#>  7 Cerea          masculine    82   198 
#>  8 Champala       masculine   NaN   196 
#>  9 Chandrila      feminine    NaN   150 
#> 10 Concord Dawn   masculine    79   183 
#> # ℹ 47 more rows
…
Use across() and pick() (new with dplyr 1.1.0) to transform sets of data variables. You can also use the .names argument to across() to control the names of the output columns.

my_summarise <- function(data, group_var, summarise_var) {
  data %>%
    group_by(pick({{ group_var }})) %>% 
    summarise(across({{ summarise_var }},
                     ~ mean(., na.rm = TRUE),
                     .names = "mean_{.col}"))
}
my_summarise(starwars, 
             group_var = c(species, gender),
             summarise_var = c(mass, height))
#> `summarise()` has grouped output by 'species'. You can override using the
#> `.groups` argument.
#> # A tibble: 42 × 4
#> # Groups:   species [38]
#>    species   gender    mean_mass mean_height
#>    <chr>     <chr>         <dbl>       <dbl>
#>  1 Aleena    masculine      15            79
#>  2 Besalisk  masculine     102           198
#>  3 Cerean    masculine      82           198
#>  4 Chagrian  masculine     NaN           196
#>  5 Clawdite  feminine       55           168
#>  6 Droid     feminine      NaN            96
#>  7 Droid     masculine      69.8         140
#>  8 Dug       masculine      40           112
#>  9 Ewok      masculine      20            88
#> 10 Geonosian masculine      80           183
#> # ℹ 32 more rows
…
