tidyverse notes - 28 rlang: Tidy evaluation
…
my_mean(mtcars, "cyl")
#>     mean
#> 1 6.1875

am <- "cyl"
my_mean(mtcars, am)
#>     mean
#> 1 6.1875

.data does not support character vectors of length greater than one. For character vectors of names greater than one use all_of() or any_of().

vars <- c("cyl", "am")
mtcars %>% tidyr::pivot_longer(all_of(vars))
#> # A tibble: 64 × 11
#>      mpg  disp    hp  drat    wt  qsec    vs  gear  carb name  value
#>    <dbl> <dbl> <dbl> <dbl> <dbl> <dbl> <dbl> <dbl> <dbl> <chr> <dbl>
#>  1  21     160   110  3.9   2.62  16.5     0     4     4 cyl       6
#>  2  21     160   110  3.9   2.62  16.5     0     4     4 am        1
#>  3  21     160   110  3.9   2.88  17.0     0     4     4 cyl       6
#>  4  21     160   110  3.9   2.88  17.0     0     4     4 am        1
#>  5  22.8   108    93  3.85  2.32  18.6     1     4     1 cyl       4
#>  6  22.8   108    93  3.85  2.32  18.6     1     4     1 am        1
#>  7  21.4   258   110  3.08  3.22  19.4     1     3     1 cyl       6
#>  8  21.4   258   110  3.08  3.22  19.4     1     3     1 am        0
#>  9  18.7   360   175  3.15  3.44  17.0     0     3     2 cyl       8
#> 10  18.7   360   175  3.15  3.44  17.0     0     3     2 am        0
#> # ℹ 54 more rows

28.3.4 Bridge patterns

You change the behavior of an argument instead of inheriting it.

You can use across() or pick() as a bridge between selection and data masking.

my_group_by <- function(data, cols) {
  group_by(data, pick({{ cols }}))
}

mtcars %>% my_group_by(starts_with("c"))
#> # A tibble: 32 × 11
#> # Groups:   cyl, carb [9]
#>      mpg   cyl  disp    hp  drat    wt  qsec    vs    am  gear  carb
#>    <dbl> <dbl> <dbl> <dbl> <dbl> <dbl> <dbl> <dbl> <dbl> <dbl> <dbl>
#>  1  21       6  160    110  3.9   2.62  16.5     0     1     4     4
#>  2  21       6  160    110  3.9   2.88  17.0     0     1     4     4
#>  3  22.8     4  108     93  3.85  2.32  18.6     1     1     4     1
#>  4  21.4     6  258    110  3.08  3.22  19.4     1     0     3     1
#>  5  18.7     8  360    175  3.15  3.44  17.0     0     0     3     2
#>  6  18.1     6  225    105  2.76  3.46  20.2     1     0     3     1
#>  7  14.3     8  360    245  3.21  3.57  15.8     0     0     3     4
#>  8  24.4     4  147.    62  3.69  3.19  20       1     0     4     2
#>  9  22.8     4  141.    95  3.92  3.15  22.9     1     0     4     2
#> 10  19.2     6  168.   123  3.92  3.44  18.3     1     0     4     4
#> # ℹ 22 more rows

pick(), unlike across() takes dynamic dots, so you can also just pass on the dots. With across() you need to collect the dots with c(...).

my_group_by <- function(.data, ...) {
  group_by(.data, pick(...))
}

mtcars %>% my_group_by(starts_with("c"), vs:gear)
#> # A tibble: 32 × 11
#> # Groups:   cyl, carb, vs, am, gear [15]
#>      mpg   cyl  disp    hp  drat    wt  qsec    vs    am  gear  carb
#>    <dbl> <dbl> <dbl> <dbl> <dbl> <dbl> <dbl> <dbl> <dbl> <dbl> <dbl>
#>  1  21       6  160    110  3.9   2.62  16.5     0     1     4     4
#>  2  21       6  160    110  3.9   2.88  17.0     0     1     4     4
#>  3  22.8     4  108     93  3.85  2.32  18.6     1     1     4     1
#>  4  21.4     6  258    110  3.08  3.22  19.4     1     0     3     1
#>  5  18.7     8  360    175  3.15  3.44  17.0     0     0     3     2
#>  6  18.1     6  225    105  2.76  3.46  20.2     1     0     3     1
#>  7  14.3     8  360    245  3.21  3.57  15.8     0     0     3     4
#>  8  24.4     4  147.    62  3.69  3.19  20       1     0     4     2
#>  9  22.8     4  141.    95  3.92  3.15  22.9     1     0     4     2
#> 10  19.2     6  168.   123  3.92  3.44  18.3     1     0     4     4
#> # ℹ 22 more rows

Use all_of() or any_of() to bridge names, or character vectors, to a data mask.

my_group_by <- function(data, vars) {
  data %>% dplyr::group_by(pick(all_of(vars)))
}

mtcars %>% my_group_by(c("cyl", "am"))
#> # A tibble: 32 × 11
#> # Groups:   cyl, am [6]
#>      mpg   cyl  disp    hp  drat    wt  qsec    vs    am  gear  carb
#>    <dbl> <dbl> <dbl> <dbl> <dbl> <dbl> <dbl> <dbl> <dbl> <dbl> <dbl>
#>  1  21       6  160    110  3.9   2.62  16.5     0     1     4     4
#>  2  21       6  160    110  3.9   2.88  17.0     0     1     4     4
#>  3  22.8     4  108     93  3.85  2.32  18.6     1     1     4     1
#>  4  21.4     6  258    110  3.08  3.22  19.4     1     0     3     1
#>  5  18.7     8  360    175  3.15  3.44  17.0     0     0     3     2
#>  6  18.1     6  225    105  2.76  3.46  20.2     1     0     3     1
#>  7  14.3     8  360    245  3.21  3.57  15.8     0     0     3     4
#>  8  24.4     4  147.    62  3.69  3.19  20       1     0     4     2
#>  9  22.8     4  141.    95  3.92  3.15  22.9     1     0     4     2
#> 10  19.2     6  168.   123  3.92  3.44  18.3     1     0     4     4
#> # ℹ 22 more rows
…
my_pivot_longer <- function(data, ...) {
  # Forward `...` in data-mask context with `mutate(.keep = "none")`
  # to create a new data frame and save the inputs names
  inputs <- dplyr::mutate(data, ..., .keep = "none")
  names <- names(inputs)
  
  # Update the data with the inputs
  data <- dplyr::mutate(data, !!!inputs)

  # Select the inputs by name with `all_of()`
  tidyr::pivot_longer(data, cols = all_of(names))
}

mtcars %>% my_pivot_longer(cyl, am = am * 100)
#> # A tibble: 64 × 11
#>      mpg  disp    hp  drat    wt  qsec    vs  gear  carb name  value
#>    <dbl> <dbl> <dbl> <dbl> <dbl> <dbl> <dbl> <dbl> <dbl> <chr> <dbl>
#>  1  21     160   110  3.9   2.62  16.5     0     4     4 cyl       6
#>  2  21     160   110  3.9   2.62  16.5     0     4     4 am      100
#>  3  21     160   110  3.9   2.88  17.0     0     4     4 cyl       6
#>  4  21     160   110  3.9   2.88  17.0     0     4     4 am      100
#>  5  22.8   108    93  3.85  2.32  18.6     1     4     1 cyl       4
#>  6  22.8   108    93  3.85  2.32  18.6     1     4     1 am      100
#>  7  21.4   258   110  3.08  3.22  19.4     1     3     1 cyl       6
#>  8  21.4   258   110  3.08  3.22  19.4     1     3     1 am        0
#>  9  18.7   360   175  3.15  3.44  17.0     0     3     2 cyl       8
#> 10  18.7   360   175  3.15  3.44  17.0     0     3     2 am        0
#> # ℹ 54 more rows
…
