tidyverse notes - 29 rlang: Metaprogramming
…
This pattern can be used to create a group_by() variant that takes a vector of names that is captured by data_syms() and then injected with the splice operator !!!.

my_group_by <- function(data, vars) {
  data %>% dplyr::group_by(!!!data_syms(vars))
}

mtcars %>% my_group_by(vars)
#> # A tibble: 32 × 11
#> # Groups:   cyl, am [6]
#>      mpg   cyl  disp    hp  drat    wt  qsec    vs    am  gear  carb
#>    <dbl> <dbl> <dbl> <dbl> <dbl> <dbl> <dbl> <dbl> <dbl> <dbl> <dbl>
#>  1  21       6  160    110  3.9   2.62  16.5     0     1     4     4
#>  2  21       6  160    110  3.9   2.88  17.0     0     1     4     4
#>  3  22.8     4  108     93  3.85  2.32  18.6     1     1     4     1
#>  4  21.4     6  258    110  3.08  3.22  19.4     1     0     3     1
#>  5  18.7     8  360    175  3.15  3.44  17.0     0     0     3     2
#>  6  18.1     6  225    105  2.76  3.46  20.2     1     0     3     1
#>  7  14.3     8  360    245  3.21  3.57  15.8     0     0     3     4
#>  8  24.4     4  147.    62  3.69  3.19  20       1     0     4     2
#>  9  22.8     4  141.    95  3.92  3.15  22.9     1     0     4     2
#> 10  19.2     6  168.   123  3.92  3.44  18.3     1     0     4     4
#> # ℹ 22 more rows
…
my_pivot_longer <- function(data, ...) {
  # Defuse the dots and inspect the names
  dots <- enquos(..., .named = TRUE)
  names <- names(dots)

  # Pass the inputs to `mutate()`
  data <- data %>% dplyr::mutate(!!!dots)

  # Select `...` inputs by name with `all_of()`
  data %>%
    tidyr::pivot_longer(cols = all_of(names))
}

mtcars %>% my_pivot_longer(cyl, am = am * 100)
#> # A tibble: 64 × 11
#>      mpg  disp    hp  drat    wt  qsec    vs  gear  carb name  value
#>    <dbl> <dbl> <dbl> <dbl> <dbl> <dbl> <dbl> <dbl> <dbl> <chr> <dbl>
#>  1  21     160   110  3.9   2.62  16.5     0     4     4 cyl       6
#>  2  21     160   110  3.9   2.62  16.5     0     4     4 am      100
#>  3  21     160   110  3.9   2.88  17.0     0     4     4 cyl       6
#>  4  21     160   110  3.9   2.88  17.0     0     4     4 am      100
#>  5  22.8   108    93  3.85  2.32  18.6     1     4     1 cyl       4
#>  6  22.8   108    93  3.85  2.32  18.6     1     4     1 am      100
#>  7  21.4   258   110  3.08  3.22  19.4     1     3     1 cyl       6
#>  8  21.4   258   110  3.08  3.22  19.4     1     3     1 am        0
#>  9  18.7   360   175  3.15  3.44  17.0     0     3     2 cyl       8
#> 10  18.7   360   175  3.15  3.44  17.0     0     3     2 am        0
#> # ℹ 54 more rows
…
